…
``` r
pak::pak('christopherkenny/baf')
```

## Example

The workhorse function for `baf` is the `baf()` function.

``` r
library(baf)

baf(state = 'NM', year = 2024, geographies = 'cd')
#> $CD118
#> # A tibble: 107,215 × 2
#>    GEOID           CDFP 
#>    <chr>           <chr>
#>  1 350010001071000 01   
#>  2 350010001071001 01   
#>  3 350010001071002 01   
#>  4 350010001071003 01   
#>  5 350010001071004 01   
#>  6 350010001071005 01   
#>  7 350010001071006 01   
#>  8 350010001071007 01   
#>  9 350010001071008 01   
#> 10 350010001071009 01   
#> # ℹ 107,205 more rows
```
…
